data16_13TeV.00302393.physics_Main.recon.DESDM_ZMUMU.f711_m1616_r8876
data16_13TeV.00302393.physics_Main.recon.DAOD_ZMUMU.f711_m1616_r8876
data16_13TeV.00300800.physics_Main.recon.DAOD_ZMUMU.f708_m1616_r8876
data16_13TeV.00300687.physics_Main.recon.DESDM_ZMUMU.f708_m1453_r8876
data16_13TeV.00300687.physics_Main.recon.DAOD_ZMUMU.f708_m1453_r8876
data16_13TeV.00300800.physics_Main.recon.DESDM_ZMUMU.f708_m1616_r8876
data16_13TeV.00300863.physics_Main.recon.DESDM_ZMUMU.f708_m1616_r8876
data16_13TeV.00302829.physics_Main.recon.DESDM_ZMUMU.f711_m1616_r8876
data16_13TeV.00300863.physics_Main.recon.DAOD_ZMUMU.f708_m1616_r8876
data16_13TeV.00302829.physics_Main.recon.DAOD_ZMUMU.f711_m1616_r8876
